TidyTutorial - Raheem's Blog
…
like I said before one of the great things in R is that it has many
built in datasets we can choose one to play around with, I’ll use mtcars because it’s one of the most popular datasets with very clear variables

?mtcars

when you run this line you will get informations about The mtcars dataset
 (like where it came from, what each variable means, etc…). Now we will
turn it into tibble which is according to tidyverse website : “A tibble, or tbl_df, is a modern reimagining of the data.frame, keeping what time has proven to be effective, and throwing out what is not. Tibbles are data.frames that are lazy and surly: they do less (i.e. they don’t change variable names or types, and don’t do partial matching) and complain more (e.g. when a variable does not exist). This forces you to confront problems earlier, typically leading to cleaner, more expressive code.”  this is optinal however
this Tutorial is so simple this stuff it wont matter but it’s just a habit for me.

data <- as_tibble(mtcars)
data

## # A tibble: 32 x 11
##      mpg   cyl  disp    hp  drat    wt  qsec    vs    am  gear  carb
##    <dbl> <dbl> <dbl> <dbl> <dbl> <dbl> <dbl> <dbl> <dbl> <dbl> <dbl>
##  1  21       6  160    110  3.9   2.62  16.5     0     1     4     4
##  2  21       6  160    110  3.9   2.88  17.0     0     1     4     4
##  3  22.8     4  108     93  3.85  2.32  18.6     1     1     4     1
##  4  21.4     6  258    110  3.08  3.22  19.4     1     0     3     1
##  5  18.7     8  360    175  3.15  3.44  17.0     0     0     3     2
##  6  18.1     6  225    105  2.76  3.46  20.2     1     0     3     1
##  7  14.3     8  360    245  3.21  3.57  15.8     0     0     3     4
##  8  24.4     4  147.    62  3.69  3.19  20       1     0     4     2
##  9  22.8     4  141.    95  3.92  3.15  22.9     1     0     4     2
## 10  19.2     6  168.   123  3.92  3.44  18.3     1     0     4     4
## # ... with 22 more rows

We can see that the data has 32 observations and 11 columns, now let’s make use of tidyverse

data %>% select(mpg, disp, wt, am)

## # A tibble: 32 x 4
##      mpg  disp    wt    am
##    <dbl> <dbl> <dbl> <dbl>
##  1  21    160   2.62     1
##  2  21    160   2.88     1
##  3  22.8  108   2.32     1
##  4  21.4  258   3.22     0
##  5  18.7  360   3.44     0
##  6  18.1  225   3.46     0
##  7  14.3  360   3.57     0
##  8  24.4  147.  3.19     0
##  9  22.8  141.  3.15     0
## 10  19.2  168.  3.44     0
## # ... with 22 more rows
…
An important thing to remember is that the original data is still as it
is its not modified so if you check that

data

## # A tibble: 32 x 11
##      mpg   cyl  disp    hp  drat    wt  qsec    vs    am  gear  carb
##    <dbl> <dbl> <dbl> <dbl> <dbl> <dbl> <dbl> <dbl> <dbl> <dbl> <dbl>
##  1  21       6  160    110  3.9   2.62  16.5     0     1     4     4
##  2  21       6  160    110  3.9   2.88  17.0     0     1     4     4
##  3  22.8     4  108     93  3.85  2.32  18.6     1     1     4     1
##  4  21.4     6  258    110  3.08  3.22  19.4     1     0     3     1
##  5  18.7     8  360    175  3.15  3.44  17.0     0     0     3     2
##  6  18.1     6  225    105  2.76  3.46  20.2     1     0     3     1
##  7  14.3     8  360    245  3.21  3.57  15.8     0     0     3     4
##  8  24.4     4  147.    62  3.69  3.19  20       1     0     4     2
##  9  22.8     4  141.    95  3.92  3.15  22.9     1     0     4     2
## 10  19.2     6  168.   123  3.92  3.44  18.3     1     0     4     4
## # ... with 22 more rows
…
